<svg width="97" height="97" viewBox="0 0 97 97" fill="none" xmlns="http://www.w3.org/2000/svg">
<path fill-rule="evenodd" clip-rule="evenodd" d="M7.27193 20.517L62.2237 63.133L24.3278 8.78697C33.64 4.42277 44.7717 1.34593 55.065 0.946742C77.7594 0.0656726 91.1377 26.2535 95.4468 37.5511C99.7559 48.8487 90.8262 69.3122 78.9486 83.528C67.071 97.744 47.1928 97.6849 40.1667 95.0645C34.5458 92.9682 30.4418 88.236 29.0917 86.1322L28.4303 84.8681L23.4739 89.8673L20.9038 88.617L26.3677 83.1759C20.7633 82.5412 10.2137 79.5509 4.54752 71.4409C-3.09639 60.5005 0.88001 39.7468 3.24083 27.7354C3.70655 25.3645 5.12327 22.9202 7.27193 20.517Z" fill="#80D8A2"/>
</svg>
