<svg width="563" height="644" viewBox="0 0 563 644" fill="none" xmlns="http://www.w3.org/2000/svg">
<path fill-rule="evenodd" clip-rule="evenodd" d="M513.208 248.569C513.143 249.176 512.949 249.889 512.645 250.692L526.467 250.511C536.841 264.276 558.225 297.915 560.769 322.348C563.314 346.781 562.752 402.949 562.154 427.98C553.3 459.605 527.868 527.405 496.968 545.604C466.066 563.802 329.249 618.233 264.703 643.174C292.199 619.645 348.154 561.454 352.018 516.919C353.184 503.49 360.379 481.084 371.097 454.808C363.798 458.178 356.1 461.1 347.993 463.484C258.377 489.837 145.795 490.001 102.211 447.365C58.6263 404.73 -35.5871 290.225 14.1009 187.044C63.7894 83.8629 181.861 -12.0031 242.153 1.22702C302.445 14.457 406.411 37.7835 441.642 95.1219C466.33 135.301 461.089 186.466 453.404 214.914L520.458 195.096L521.849 207.451L493.988 215.499C497.409 219.477 501.2 224.201 504.505 228.931C507.086 232.626 509.379 236.336 510.968 239.706C512.547 243.056 513.467 246.146 513.208 248.569ZM451.8 227.685L460.247 238.156C464.142 243.967 470.075 255.329 474.309 269.456C484.176 257.861 492.645 250.954 498.667 250.875L511.566 250.706C511.933 249.804 512.151 249.052 512.214 248.463C512.442 246.327 511.627 243.45 510.063 240.132C508.508 236.834 506.249 233.175 503.685 229.504C500.306 224.667 496.411 219.831 492.931 215.804L451.8 227.685Z" fill="#80D8A2"/>
</svg>
