<svg width="267" height="80" viewBox="0 0 267 80" fill="none" xmlns="http://www.w3.org/2000/svg">
<path fill-rule="evenodd" clip-rule="evenodd" d="M184 22V0L160.24 22H0L7.98457 73.0432C8.60673 77.0205 12.0874 79.9159 16.1115 79.8037L259.223 73.0226L267 22H184Z" fill="white"/>
</svg>
